power status :
ipmitool -I lanplus -H 10.42.100.110 -U tails power status

power on :
ipmitool -I lanplus -H 10.42.100.110 -U tails power on

console access :
ipmitool -I lanplus -H 10.42.100.110 -U tails sol activate
