digraph email {
        label="Email architecture, torproject.org, June 2024"
        labelloc=bottom
        node [shape=rectangle]

        // a user

        user [shape=triangle]

        // all other boxes that don't do anything special with email
        tpoboxes [label="other TPA hosts"]
        // hosts that manage and send their own email
        mailhosts [label="mail hosts\ngitlab, RT, CiviCRM"]
        submit1
        // legacy
        eugeni [style=filled label="eugeni\nmailman, schleuder\nmx, MTA"]
        // external boxes
        dotdotdot [label="internet\nnon TPO mail hosts", shape=ellipse]
        // other hosts that currently masquerade as us
        masquerade [label="impersonators\nriseup, gmail, etc"]

        // all relations

        // eugeni handles basically everything except some rare
        // exceptions on mailhosts
        {submit1, dotdotdot} -> { mailhosts, eugeni }
        // users interact with those
        user -> submit1
        user -> eugeni [label="HTTP\nSMTP"]
        user -> mailhosts [label="HTTP"]
        // those all relay mail to the outside
        { submit1, mailhosts } -> dotdotdot
        eugeni -> dotdotdot [color=orange label="unreliable"]
        // except those, who still go through the relay
        tpoboxes -> eugeni [label="SMTPS"]
}
