<mxfile host="app.diagrams.net" modified="2024-04-17T18:53:10.217Z" agent="Mozilla/5.0 (X11; Linux x86_64; rv:109.0) Gecko/20100101 Firefox/115.0" etag="23vSSkAoJf2BCgNxoP3B" version="24.2.5" type="device">
  <diagram name="Page-1" id="NyHda0jNX6-Cwlv8UxEW">
    <mxGraphModel dx="989" dy="545" grid="1" gridSize="10" guides="1" tooltips="1" connect="1" arrows="1" fold="1" page="1" pageScale="1" pageWidth="850" pageHeight="1100" math="0" shadow="0">
      <root>
        <mxCell id="0" />
        <mxCell id="1" parent="0" />
        <mxCell id="aoTUTGaMDfuBw6C7MB9e-1" value="Shared runners" style="whiteSpace=wrap;html=1;aspect=fixed;verticalAlign=top;" vertex="1" parent="1">
          <mxGeometry x="50" y="320" width="220" height="220" as="geometry" />
        </mxCell>
        <mxCell id="aoTUTGaMDfuBw6C7MB9e-5" value="&lt;div&gt;Run tests&lt;/div&gt;" style="rounded=1;whiteSpace=wrap;html=1;" vertex="1" parent="1">
          <mxGeometry x="100" y="460" width="120" height="60" as="geometry" />
        </mxCell>
        <mxCell id="aoTUTGaMDfuBw6C7MB9e-8" value="" style="edgeStyle=orthogonalEdgeStyle;rounded=0;orthogonalLoop=1;jettySize=auto;html=1;" edge="1" parent="1" source="aoTUTGaMDfuBw6C7MB9e-6" target="aoTUTGaMDfuBw6C7MB9e-5">
          <mxGeometry relative="1" as="geometry" />
        </mxCell>
        <mxCell id="aoTUTGaMDfuBw6C7MB9e-6" value="&lt;div&gt;Build image&lt;/div&gt;" style="rounded=1;whiteSpace=wrap;html=1;" vertex="1" parent="1">
          <mxGeometry x="100" y="370" width="120" height="60" as="geometry" />
        </mxCell>
        <mxCell id="aoTUTGaMDfuBw6C7MB9e-9" value="&lt;div&gt;Shell runner&lt;/div&gt;&lt;div&gt;(donate-review-01)&lt;br&gt;&lt;/div&gt;" style="whiteSpace=wrap;html=1;aspect=fixed;verticalAlign=top;" vertex="1" parent="1">
          <mxGeometry x="300" y="320" width="270" height="270" as="geometry" />
        </mxCell>
        <mxCell id="aoTUTGaMDfuBw6C7MB9e-10" value="systemd" style="rounded=1;whiteSpace=wrap;html=1;verticalAlign=top;" vertex="1" parent="1">
          <mxGeometry x="320" y="480" width="100" height="100" as="geometry" />
        </mxCell>
        <mxCell id="aoTUTGaMDfuBw6C7MB9e-11" value="&lt;div&gt;ci script&lt;/div&gt;" style="rounded=0;whiteSpace=wrap;html=1;" vertex="1" parent="1">
          <mxGeometry x="365" y="380" width="120" height="40" as="geometry" />
        </mxCell>
        <mxCell id="aoTUTGaMDfuBw6C7MB9e-12" value="&lt;div&gt;podman&lt;/div&gt;" style="rounded=1;whiteSpace=wrap;html=1;" vertex="1" parent="1">
          <mxGeometry x="325" y="510" width="90" height="50" as="geometry" />
        </mxCell>
        <mxCell id="aoTUTGaMDfuBw6C7MB9e-14" value="&lt;div&gt;web proxy&lt;/div&gt;" style="rounded=1;whiteSpace=wrap;html=1;" vertex="1" parent="1">
          <mxGeometry x="430" y="510" width="90" height="50" as="geometry" />
        </mxCell>
        <mxCell id="aoTUTGaMDfuBw6C7MB9e-15" value="" style="endArrow=classic;html=1;rounded=0;entryX=0.5;entryY=0;entryDx=0;entryDy=0;exitX=0.5;exitY=1;exitDx=0;exitDy=0;" edge="1" parent="1" source="aoTUTGaMDfuBw6C7MB9e-11" target="aoTUTGaMDfuBw6C7MB9e-10">
          <mxGeometry width="50" height="50" relative="1" as="geometry">
            <mxPoint x="400" y="440" as="sourcePoint" />
            <mxPoint x="450" y="390" as="targetPoint" />
          </mxGeometry>
        </mxCell>
        <mxCell id="aoTUTGaMDfuBw6C7MB9e-16" value="" style="endArrow=classic;html=1;rounded=0;entryX=0.5;entryY=0;entryDx=0;entryDy=0;exitX=0.5;exitY=1;exitDx=0;exitDy=0;" edge="1" parent="1" source="aoTUTGaMDfuBw6C7MB9e-11" target="aoTUTGaMDfuBw6C7MB9e-14">
          <mxGeometry width="50" height="50" relative="1" as="geometry">
            <mxPoint x="420" y="420" as="sourcePoint" />
            <mxPoint x="450" y="390" as="targetPoint" />
          </mxGeometry>
        </mxCell>
        <mxCell id="aoTUTGaMDfuBw6C7MB9e-18" value="Build + test CI" style="text;html=1;align=center;verticalAlign=middle;whiteSpace=wrap;rounded=0;" vertex="1" parent="1">
          <mxGeometry x="105" y="260" width="110" height="30" as="geometry" />
        </mxCell>
        <mxCell id="aoTUTGaMDfuBw6C7MB9e-20" value="Review apps CI" style="text;html=1;align=center;verticalAlign=middle;whiteSpace=wrap;rounded=0;" vertex="1" parent="1">
          <mxGeometry x="370" y="260" width="110" height="30" as="geometry" />
        </mxCell>
        <mxCell id="aoTUTGaMDfuBw6C7MB9e-22" value="Shared runners" style="rounded=0;whiteSpace=wrap;html=1;verticalAlign=top;" vertex="1" parent="1">
          <mxGeometry x="598" y="320" width="210" height="120" as="geometry" />
        </mxCell>
        <mxCell id="aoTUTGaMDfuBw6C7MB9e-23" value="Production machine" style="rounded=0;whiteSpace=wrap;html=1;verticalAlign=top;" vertex="1" parent="1">
          <mxGeometry x="598" y="460" width="210" height="120" as="geometry" />
        </mxCell>
        <mxCell id="aoTUTGaMDfuBw6C7MB9e-24" value="&lt;div&gt;podman&lt;/div&gt;" style="rounded=1;whiteSpace=wrap;html=1;" vertex="1" parent="1">
          <mxGeometry x="658" y="500" width="90" height="50" as="geometry" />
        </mxCell>
        <mxCell id="aoTUTGaMDfuBw6C7MB9e-31" style="edgeStyle=orthogonalEdgeStyle;rounded=0;orthogonalLoop=1;jettySize=auto;html=1;" edge="1" parent="1" source="aoTUTGaMDfuBw6C7MB9e-25" target="aoTUTGaMDfuBw6C7MB9e-24">
          <mxGeometry relative="1" as="geometry" />
        </mxCell>
        <mxCell id="aoTUTGaMDfuBw6C7MB9e-25" value="&lt;div&gt;ssh&lt;br&gt;&lt;/div&gt;" style="rounded=1;whiteSpace=wrap;html=1;" vertex="1" parent="1">
          <mxGeometry x="658" y="360" width="90" height="50" as="geometry" />
        </mxCell>
        <mxCell id="aoTUTGaMDfuBw6C7MB9e-27" value="Production CI" style="text;html=1;align=center;verticalAlign=middle;whiteSpace=wrap;rounded=0;" vertex="1" parent="1">
          <mxGeometry x="648" y="260" width="110" height="30" as="geometry" />
        </mxCell>
      </root>
    </mxGraphModel>
  </diagram>
</mxfile>
